…
``` r
# Pull data for all ZIP codes in the dataset
zipdata <- reverse_zipcode( vax$zip_code_tabulation_area )
zipdata
```

    ## # A tibble: 1,764 × 24
    ##    zipcode zipcode_type major_city  post_office_city common_city_list county    
    ##    <chr>   <chr>        <chr>       <chr>                      <blob> <chr>     
    ##  1 90001   Standard     Los Angeles Los Angeles, CA        <raw 44 B> Los Angel…
    ##  2 90002   Standard     Los Angeles Los Angeles, CA        <raw 47 B> Los Angel…
    ##  3 90003   Standard     Los Angeles Los Angeles, CA        <raw 23 B> Los Angel…
    ##  4 90004   Standard     Los Angeles Los Angeles, CA        <raw 34 B> Los Angel…
    ##  5 90005   Standard     Los Angeles Los Angeles, CA        <raw 34 B> Los Angel…
    ##  6 90006   Standard     Los Angeles Los Angeles, CA        <raw 23 B> Los Angel…
    ##  7 90007   Standard     Los Angeles Los Angeles, CA        <raw 37 B> Los Angel…
    ##  8 90008   Standard     Los Angeles Los Angeles, CA        <raw 53 B> Los Angel…
    ##  9 90010   Standard     Los Angeles Los Angeles, CA        <raw 23 B> Los Angel…
    ## 10 90011   Standard     Los Angeles Los Angeles, CA        <raw 23 B> Los Angel…
    ## # … with 1,754 more rows, and 18 more variables: state <chr>, lat <dbl>,
    ## #   lng <dbl>, timezone <chr>, radius_in_miles <dbl>, area_code_list <blob>,
    ## #   population <int>, population_density <dbl>, land_area_in_sqmi <dbl>,
    ## #   water_area_in_sqmi <dbl>, housing_units <int>,
    ## #   occupied_housing_units <int>, median_home_value <int>,
    ## #   median_household_income <int>, bounds_west <dbl>, bounds_east <dbl>,
    ## #   bounds_north <dbl>, bounds_south <dbl>
…
